<?xml version="1.0" encoding="utf-8"?>
<!-- Generator: Adobe Illustrator 16.0.0, SVG Export Plug-In . SVG Version: 6.00 Build 0)  -->
<!DOCTYPE svg PUBLIC "-//W3C//DTD SVG 1.1//EN" "http://www.w3.org/Graphics/SVG/1.1/DTD/svg11.dtd">
<svg version="1.1" id="Capa_1" xmlns="http://www.w3.org/2000/svg" xmlns:xlink="http://www.w3.org/1999/xlink" x="0px" y="0px"
	 width="1012.449px" height="457.477px" viewBox="0 0 1012.449 457.477" enable-background="new 0 0 1012.449 457.477"
	 xml:space="preserve">
<g>
	<g>
		<path fill="#004988" d="M497.24,207.354c0-9.092,1.623-12.338-8.55-17.75l0,0l-7.033-3.461v-6.277h70.125v6.277l-7.143,2.814l0,0
			c-10.605,4.329-10.605,5.518-10.389,18.397l0,0l0.107,51.834l-2.598,2.488l0,0c-12.227,3.139-40.798,10.93-66.553,10.93
			c-59.086,0-88.195-30.625-88.195-96.852c0-71.208,41.123-102.048,95.121-102.048c14.5,0,40.799,0,59.086,15.475
			c6.061,5.087,6.602,10.822,6.602,13.095c0,4.328-0.865,5.194-1.73,6.925l0,0l-13.094,25.433h-4.871l0,0
			c0-12.554-14.608-45.992-52.594-45.992c-44.043,0-46.207,30.732-46.207,82.676c0,45.452,4.76,86.356,57.354,86.356
			c16.989,0,20.128-8.98,20.562-19.045C497.24,238.627,497.24,212.44,497.24,207.354L497.24,207.354L497.24,207.354z"/>
		<path fill="#004988" d="M569.311,262.542l12.555-5.086l0,0c10.279-4.004,10.279-11.471,10.279-28.027l0,0V110.066l0,0
			c0-9.198-2.596-13.743-9.738-18.612l0,0l-11.473-7.684v-6.276h52.055l3.137,1.947l0,0c5.734,7.685,17.639,28.353,33.654,49.996
			l0,0l55.189,75.103l0,0c2.273,3.137,3.463,4.545,4.545,4.545c2.273,0,2.273-2.814,2.273-8.008l0,0v-90.794l0,0
			c0-13.095-0.217-15.691-11.363-20.235l0,0l-16.34-6.277v-6.276h65.469v6.276l-8.332,3.138l0,0
			c-12.227,4.87-14.607,7.684-14.607,26.514l0,0v112.546l0,0c0,17.205,0.324,34.627,0.324,40.578l0,0l-1.947,2.273h-16.016
			l-3.139-2.273l0,0c-2.598-3.137-17.424-24.023-32.574-44.26l0,0L616.385,132.9l0,0c-3.68-4.87-5.41-7.467-6.818-7.467
			c-2.596,0-2.596,2.921-2.596,6.925l0,0v102.156l0,0c0,13.742,0,18.072,12.012,22.076l0,0l16.881,5.951v6.277h-66.553V262.542
			L569.311,262.542z"/>
		<path fill="#004988" d="M776.328,262.542l12.553-4.219l0,0c9.416-3.139,9.738-8.332,9.738-26.297l0,0V108.552l0,0
			c0-13.636,0-17.099-9.738-20.236l0,0l-12.553-4.546v-6.276h94.688l0,0c33.115,0,65.578,7.143,65.578,50.536
			c0,39.716-29.648,64.281-75.967,64.281c-1.949,0-4.543-0.324-6.275-0.324l0,0l-4.221-10.282l2.271-2.273l0,0
			c20.779-0.539,45.992-9.089,42.422-49.237c-2.814-31.275-11.906-37.118-37.551-37.118c-17.424,0-18.615,2.597-18.615,9.739l0,0
			v129.21l0,0c0,19.154-0.322,23.158,11.146,26.297l0,0l14.826,4.219v6.277h-88.303V262.542L776.328,262.542z"/>
		<polygon fill="#004988" points="978.85,298.471 377.012,298.471 377.012,294.467 978.85,294.467 		"/>
		<path fill="#EC6825" d="M259.49,172.184c0,17.637-14.285,31.922-32.032,31.922c-17.639,0-31.923-14.286-31.923-31.922
			c0-17.641,14.284-31.925,31.923-31.925C245.205,140.258,259.49,154.542,259.49,172.184L259.49,172.184L259.49,172.184z"/>
		<path fill="#EC6825" d="M174.324,118.832h-69.041l13.959,42.745h34.412v-0.107l0,0c34.847,0,63.09-28.244,63.199-63.199l0,0l0,0
			l0,0V63.966l-42.529-13.96V118.832L174.324,118.832z"/>
		<path fill="#EC6825" d="M174.109,225.424v68.934l42.745-13.852v-34.412h-0.109l0,0c0-34.846-28.243-63.09-63.197-63.2l0,0l0,0l0,0
			h-34.305l-13.959,42.53H174.109L174.109,225.424z"/>
		<path fill="#EC6825" d="M280.7,225.534h69.042l-14.07-42.639h-34.303h-0.109l0,0c-34.844,0.109-63.088,28.354-63.088,63.2l0,0l0,0
			v0.109v34.195l42.528,13.959V225.534L280.7,225.534z"/>
		<path fill="#EC6825" d="M280.809,119.048V50.116l-42.637,13.851v34.412l0,0l0,0c0.107,34.847,28.353,63.091,63.197,63.198l0,0
			h0.107l0,0h34.195l14.07-42.528H280.809L280.809,119.048z"/>
		<path fill="#004988" d="M963.11,80.631c6.6,0,12.01,5.303,12.01,12.878c0,7.467-5.41,12.878-12.01,12.878v3.029
			c8.764,0,15.906-7.142,15.906-15.907c0-8.873-7.143-16.016-15.906-16.016V80.631L963.11,80.631z M963.11,95.889v-3.787h0.107l0,0
			c2.055,0,3.678-0.324,3.678-2.704c0-2.165-1.947-2.49-3.572-2.49l0,0h-0.213v-2.597h0.539l0,0c4.328,0,6.709,1.515,6.709,5.303
			c0,3.138-1.838,4.653-4.762,4.87l0,0l4.871,8.008h-3.463L963.11,95.889z M963.11,106.387c-6.709,0-12.121-5.411-12.121-12.878
			c0-7.575,5.412-12.878,12.121-12.878l0,0v-3.138l0,0c-8.875,0-16.018,7.143-16.018,16.016c0,8.766,7.143,15.907,16.018,15.907l0,0
			l0,0l0,0V106.387L963.11,106.387L963.11,106.387L963.11,106.387L963.11,106.387z M963.11,84.311v2.597h-2.814l0,0v5.194h2.814
			v3.787l-0.76-1.189h-2.055v7.792h-3.355l0,0V84.311H963.11z"/>
		<g>
			<path fill="#004988" d="M391.524,379.235c-6.764,0-10.955-1.912-12.498-2.795c-1.396-1.617-2.354-6.91-2.354-11.91
				c0.516-0.955,2.205-1.029,2.795-0.221c1.469,4.779,6.395,11.543,12.645,11.543c5.441,0,7.939-3.75,7.939-7.426
				c0-5.953-5.586-9.484-9.998-11.689c-5.293-2.646-11.102-7.057-11.102-14.338c-0.074-8.307,6.396-14.041,17.057-14.041
				c2.428,0,5.441,0.293,8.381,1.176c0.957,0.295,1.619,0.441,2.5,0.588c0.59,1.619,1.324,5.588,1.324,10.514
				c-0.367,0.883-2.205,0.957-2.867,0.223c-1.25-3.752-4.412-9.117-9.705-9.117c-4.854,0-7.5,3.16-7.5,6.838
				c0,3.381,3.016,6.469,6.691,8.379l4.852,2.574c4.559,2.426,10.367,6.689,10.367,14.777
				C410.051,373.354,402.625,379.235,391.524,379.235z"/>
			<path fill="#004988" d="M470.045,348.649c0,2.061,0.072,2.205,2.059,2.205h5.072c3.824,0,4.705-0.512,5.439-4.043l0.369-1.838
				c0.514-0.586,2.354-0.586,2.721,0.074c-0.148,2.354-0.221,5-0.221,7.793c0,2.795,0.072,5.441,0.221,7.793
				c-0.367,0.662-2.207,0.736-2.721,0.072l-0.369-1.836c-0.734-3.529-1.615-4.117-5.439-4.117h-5.072
				c-1.986,0-2.059,0.072-2.059,2.279v8.748c0,3.383,0.293,5.736,1.176,6.984c0.955,1.324,2.354,1.912,7.721,1.912
				c6.396,0,8.895-0.221,12.938-8.527c0.588-0.811,2.426-0.516,2.721,0.367c-0.295,3.822-2.059,9.777-3.088,11.764
				c-3.897-0.148-10.954-0.223-16.983-0.223h-9.559c-3.529,0-7.131,0.074-12.645,0.223c-0.588-0.441-0.588-2.205,0-2.574
				l3.455-0.514c3.309-0.516,3.75-0.955,3.75-7.721v-27.424c0-6.689-0.441-7.131-3.75-7.793l-1.838-0.369
				c-0.662-0.439-0.588-2.131,0.146-2.572c3.455,0.148,7.059,0.221,10.588,0.221h15.586c4.705,0,8.896-0.072,9.853-0.221
				c0.072,1.176,0.588,6.471,0.955,11.396c-0.295,0.809-1.985,0.955-2.72,0.293c-0.809-2.572-1.838-4.777-2.795-5.807
				c-1.396-1.398-3.602-2.279-7.203-2.279h-5.883c-2.426,0-2.426,0.146-2.426,2.867V348.649z"/>
			<path fill="#004988" d="M582.459,369.75c0,3.088,0.146,4.559,1.543,4.854c0.295,0.293,0.221,1.543-0.221,1.764
				c-1.248,0.221-3.16,0.441-5.145,1.104c-2.574,0.809-8.896,1.764-13.014,1.764c-5,0-9.264-0.516-14.484-2.574
				c-8.604-3.455-14.484-11.615-14.484-22.201c0-9.191,4.117-17.279,12.939-22.205c5-2.721,10.955-3.896,17.205-3.896
				c8.16,0,12.205,1.764,14.557,1.764c0.221,2.205,0.295,7.354,1.029,11.838c-0.295,0.809-2.279,0.883-2.793,0.148
				c-2.354-6.912-6.984-10.367-13.822-10.367c-11.689,0-17.352,9.703-17.352,21.32c0,10.514,3.604,16.762,8.381,19.998
				c3.529,2.352,7.354,2.793,10.074,2.793c4.189,0,5.072-0.809,5.072-5.588v-4.631c0-3.971-0.441-4.412-3.971-4.928l-3.234-0.439
				c-0.809-0.441-0.809-2.131,0-2.574c5.221,0.148,8.822,0.223,12.426,0.223c3.529,0,7.131-0.074,9.629-0.223
				c0.59,0.443,0.59,2.133,0,2.574l-1.689,0.295c-2.205,0.367-2.646,1.102-2.646,5.072V369.75z"/>
			<path fill="#004988" d="M634.658,340.122c0-6.838-0.441-7.279-3.75-7.941l-1.838-0.367c-0.588-0.439-0.66-2.059,0.146-2.5
				c3.529,0.148,7.205,0.221,10.734,0.221c3.604,0,7.205-0.072,10.734-0.221c0.588,0.441,0.588,2.061,0,2.5l-1.764,0.295
				c-3.309,0.588-3.75,1.176-3.75,8.014v16.982c0,8.602,0.955,18.088,12.131,18.088c9.412,0,12.277-8.234,12.277-18.307v-8.898
				c0-5.953-0.293-11.543-1.102-13.453c-0.662-1.543-2.279-1.984-4.266-2.354l-1.984-0.367c-0.588-0.588-0.439-2.059,0-2.5
				c3.971,0.148,6.838,0.221,9.852,0.221c2.723,0,5.441-0.072,8.236-0.221c0.439,0.441,0.586,1.912,0,2.5l-1.326,0.295
				c-1.91,0.441-3.307,0.883-3.969,2.426c-0.809,1.91-1.102,7.5-1.102,13.453v8.234c0,6.912-0.662,13.234-4.707,17.721
				c-3.234,3.455-8.602,5.293-14.557,5.293c-5.588,0-10.588-0.883-14.557-4.117c-3.824-3.16-5.441-8.602-5.441-16.617V340.122z"/>
			<path fill="#004988" d="M728.399,341.444c0-7.352-0.148-8.16-3.236-8.602l-1.984-0.293c-0.736-0.369-0.736-2.205,0.146-2.574
				c5.514-0.369,11.248-0.662,18.234-0.662c6.248,0,11.615,0.957,14.41,2.648c4.264,2.498,6.471,6.176,6.471,10.881
				c0,6.543-4.412,9.338-7.795,11.027c-0.734,0.367-0.734,0.809-0.367,1.617c4.854,9.852,7.867,15.365,11.395,18.381
				c1.912,1.543,3.824,1.984,4.928,2.059c0.66,0.367,0.66,1.471,0.295,1.912c-1.178,0.514-3.529,0.662-5.809,0.662
				c-6.766,0-11.029-2.426-14.266-7.721c-2.352-3.896-4.043-7.5-5.732-11.396c-0.883-1.984-2.059-2.572-3.896-2.572
				c-2.574,0-2.721,0.146-2.721,1.615v9.045c0,6.766,0.441,7.277,3.748,7.867l1.986,0.367c0.516,0.369,0.516,2.133,0,2.574
				c-3.898-0.148-7.279-0.223-10.809-0.223c-3.676,0-6.91,0.074-10.732,0.223c-0.588-0.441-0.588-2.205,0-2.574l1.984-0.367
				c3.309-0.59,3.75-1.102,3.75-7.867V341.444z M738.471,350.782c0,2.574,0.221,2.795,4.559,2.795c2.646,0,4.189-0.662,5.588-2.061
				c1.248-1.25,2.646-3.602,2.646-7.939c0-6.617-3.898-10.881-9.633-10.881c-3.014,0-3.16,0.221-3.16,3.748V350.782z"/>
			<path fill="#004988" d="M860.588,353.577c0,16.027-10.734,25.658-26.541,25.658c-14.777,0-25.512-9.705-25.512-25.07
				c0-14.559,10.881-25.807,26.248-25.807C850.074,328.358,860.588,338.651,860.588,353.577z M834.194,331.741
				c-9.043,0-13.895,8.455-13.895,20.732c0,8.971,3.162,23.379,15.145,23.379c9.633,0,13.381-9.41,13.381-21.32
				C848.824,341.959,843.311,331.741,834.194,331.741z"/>
			<path fill="#004988" d="M919.037,379.235c-6.764,0-10.953-1.912-12.498-2.795c-1.396-1.617-2.354-6.91-2.354-11.91
				c0.516-0.955,2.207-1.029,2.795-0.221c1.471,4.779,6.396,11.543,12.645,11.543c5.441,0,7.939-3.75,7.939-7.426
				c0-5.953-5.586-9.484-9.996-11.689c-5.295-2.646-11.104-7.057-11.104-14.338c-0.072-8.307,6.396-14.041,17.057-14.041
				c2.428,0,5.441,0.293,8.383,1.176c0.953,0.295,1.617,0.441,2.498,0.588c0.59,1.619,1.324,5.588,1.324,10.514
				c-0.367,0.883-2.205,0.957-2.869,0.223c-1.246-3.752-4.41-9.117-9.703-9.117c-4.852,0-7.498,3.16-7.498,6.838
				c0,3.381,3.014,6.469,6.689,8.379l4.852,2.574c4.559,2.426,10.367,6.689,10.367,14.777
				C937.565,373.354,930.139,379.235,919.037,379.235z"/>
		</g>
	</g>
</g>
</svg>
